<!-- This Source Code Form is subject to the terms of the Mozilla Public
   - License, v. 2.0. If a copy of the MPL was not distributed with this
   - file, You can obtain one at http://mozilla.org/MPL/2.0/. -->
<svg xmlns="http://www.w3.org/2000/svg" width="16" height="16" fill="context-fill" fill-opacity="context-fill-opacity" viewBox="0 0 16 16">
	<path d="M13 0H3a2 2 0 0 0-2 2v12a2 2 0 0 0 2 2h10a2 2 0 0 0 2-2V2a2 2 0 0 0-2-2zm0 13a1 1 0 0 1-1 1H4a1 1 0 0 1-1-1V3a1 1 0 0 1 1-1h8a1 1 0 0 1 1 1zm-2.5-9h-5a.5.5 0 0 0 0 1h5a.5.5 0 0 0 0-1zm0 2h-5a.5.5 0 0 0 0 1h5a.5.5 0 1 0 0-1zm0 2h-5a.5.5 0 0 0 0 1h5a.5.5 0 1 0 0-1zm-3 2h-2a.5.5 0 0 0 0 1h2a.5.5 0 1 0 0-1z"/>
</svg>